{
  "itemDefs": [
    {
      "type": "pizza",
      "tags": [
        "consumable"
      ],
      "food": {
        "effects": [
          {
            "rec": {
              "type": "hp",
              "value": 10
            }
          },
          {
            "buff": {
              "type": "mana_max",
              "value": 10
            }
          },
          {
            "rec": {
              "type": "saturation",
              "value": 20
            }
          }
        ]
      }
    },
    {
      "type": "hamburger",
      "tags": [
        "consumable"
      ]
    }
  ]
}